{
  "name": "MagicalRecord",
  "version": "1.0",
  "license": "MIT",
  "summary": "Super Awesome Easy Fetching for Core Data 1!!!11!!!!1!.",
  "homepage": "http://github.com/magicalpanda/MagicalRecord",
  "authors": {
    "Saul Mora": "saul@magicalpanda.com"
  },
  "source": {
    "git": "https://bitbucket.org/daocaoren/magicalrecord.git",
    "tag": "0.1"
  },
  "description": "Handy fetching, threading and data import helpers to make Core Data a little easier to use.",
  "frameworks": "CoreData",
  "requires_arc": true,
  "default_subspec": "Core",
  "subspecs": [
    {
      "name": "Core",
      "source_files": "**/*.{h,m}",
      "prefix_header_contents": [
        "#import <CoreData/CoreData.h>",
        "#import \"CoreData+MagicalRecord.h\""
      ]
    },
    {
      "name": "Shorthand",
      "source_files": "**/*.{h,m}",
      "prefix_header_contents": [
        "#define MR_SHORTHAND 0",
        "#import <CoreData/CoreData.h>",
        "#import \"CoreData+MagicalRecord.h\""
      ]
    }
  ]
}
