{
  "name": "Facebook-iOS-SDK",
  "version": "3.22.3",
  "summary": "Official Facebook SDK for iOS to access Facebook Platform with features like Login, Share and Message Dialog, App Links, and Graph API",
  "description": "                   The Facebook SDK for iOS enables you to use Facebook's Platform such as:\n                   * Facebook Login to easily sign in users.\n                   * Sharing features like the Share or Message Dialog to grow your app.\n                   * Simpler Graph API access to provide more social context.\n",
  "homepage": "https://developers.facebook.com/docs/ios/",
  "license": {
    "type": "Apache License, Version 2.0",
    "file": "LICENSE"
  },
  "authors": "Facebook",
  "platforms": {
    "ios": "6.0"
  },
  "source": {
    "git": "git@bitbucket.org:pacerhealth/facebook.git",
    "tag": "3.22.3"
  },
  "source_files": "src/**/*.{h,m}",
  "exclude_files": [
    "src/**/*Tests.{h,m}",
    "src/tests/*.{h,m}",
    "src/*Test*/*.{h,m}"
  ],
  "public_header_files": "src/*.h",
  "header_dir": "FacebookSDK",
  "weak_frameworks": [
    "Accounts",
    "CoreLocation",
    "Social",
    "Security",
    "QuartzCore",
    "CoreGraphics",
    "UIKit",
    "Foundation",
    "AudioToolbox"
  ],
  "requires_arc": false,
  "prepare_command": "find src -name \\*.png | grep -v @ | grep -v '/tests/' | grep -v 'Tests/' | grep -v -- - | sed -e 's|\\(.*\\)/\\([a-zA-Z0-9]*\\).png|scripts/image_to_code.py -i \\1/\\2.png -c \\2 -o src/ImageResources|' | sh && find src -name \\*.wav | grep -v @ | grep -v -- - | sed -e 's|\\(.*\\)/\\([a-zA-Z0-9]*\\).wav|scripts/audio_to_code.py -i \\1/\\2.wav -c \\2 -o src/AudioResources|' | sh",
  "dependencies": {
    "Bolts": [
      "~> 1.0"
    ]
  }
}
